memory_initialization_radix = 2;
memory_initialization_vector = 
111111111111110001
111111111111110000
111111111111110000
111111111111101111
111111111111101110
111111111111101110
111111111111101101
111111111111101100
111111111111101011
111111111111101011
111111111111101010
111111111111101001
111111111111101000
111111111111101000
111111111111100111
111111111111100110
111111111111100101
111111111111100100
111111111111100100
111111111111100011
111111111111100010
111111111111100001
111111111111100000
111111111111100000
111111111111011111
111111111111011110
111111111111011101
111111111111011100
111111111111011011
111111111111011010
111111111111011010
111111111111011001
111111111111011000
111111111111010111
111111111111010110
111111111111010101
111111111111010100
111111111111010011
111111111111010011
111111111111010010
111111111111010001
111111111111010000
111111111111001111
111111111111001110
111111111111001101
111111111111001100
111111111111001011
111111111111001011
111111111111001010
111111111111001001
111111111111001000
111111111111000111
111111111111000110
111111111111000101
111111111111000101
111111111111000100
111111111111000011
111111111111000010
111111111111000001
111111111111000000
111111111111000000
111111111110111111
111111111110111110
111111111110111101
111111111110111100
111111111110111100
111111111110111011
111111111110111010
111111111110111001
111111111110111001
111111111110111000
111111111110110111
111111111110110111
111111111110110110
111111111110110101
111111111110110101
111111111110110100
111111111110110100
111111111110110011
111111111110110011
111111111110110010
111111111110110001
111111111110110001
111111111110110001
111111111110110000
111111111110110000
111111111110101111
111111111110101111
111111111110101110
111111111110101110
111111111110101110
111111111110101110
111111111110101101
111111111110101101
111111111110101101
111111111110101101
111111111110101101
111111111110101100
111111111110101100
111111111110101100
111111111110101100
111111111110101100
111111111110101100
111111111110101100
111111111110101100
111111111110101100
111111111110101101
111111111110101101
111111111110101101
111111111110101101
111111111110101101
111111111110101110
111111111110101110
111111111110101111
111111111110101111
111111111110101111
111111111110110000
111111111110110000
111111111110110001
111111111110110010
111111111110110010
111111111110110011
111111111110110100
111111111110110100
111111111110110101
111111111110110110
111111111110110111
111111111110111000
111111111110111001
111111111110111010
111111111110111011
111111111110111100
111111111110111101
111111111110111110
111111111110111111
111111111111000001
111111111111000010
111111111111000011
111111111111000101
111111111111000110
111111111111001000
111111111111001001
111111111111001011
111111111111001100
111111111111001110
111111111111010000
111111111111010001
111111111111010011
111111111111010101
111111111111010111
111111111111011001
111111111111011011
111111111111011101
111111111111011111
111111111111100001
111111111111100011
111111111111100101
111111111111100111
111111111111101001
111111111111101100
111111111111101110
111111111111110000
111111111111110011
111111111111110101
111111111111111000
111111111111111010
111111111111111101
000000000000000000
000000000000000010
000000000000000101
000000000000001000
000000000000001011
000000000000001101
000000000000010000
000000000000010011
000000000000010110
000000000000011001
000000000000011100
000000000000011111
000000000000100010
000000000000100101
000000000000101000
000000000000101100
000000000000101111
000000000000110010
000000000000110101
000000000000111001
000000000000111100
000000000001000000
000000000001000011
000000000001000110
000000000001001010
000000000001001101
000000000001010001
000000000001010100
000000000001011000
000000000001011100
000000000001011111
000000000001100011
000000000001100111
000000000001101010
000000000001101110
000000000001110010
000000000001110101
000000000001111001
000000000001111101
000000000010000001
000000000010000101
000000000010001000
000000000010001100
000000000010010000
000000000010010100
000000000010011000
000000000010011011
000000000010011111
000000000010100011
000000000010100111
000000000010101011
000000000010101111
000000000010110011
000000000010110110
000000000010111010
000000000010111110
000000000011000010
000000000011000110
000000000011001010
000000000011001110
000000000011010001
000000000011010101
000000000011011001
000000000011011101
000000000011100000
000000000011100100
000000000011101000
000000000011101011
000000000011101111
000000000011110011
000000000011110110
000000000011111010
000000000011111101
000000000100000001
000000000100000100
000000000100001000
000000000100001011
000000000100001111
000000000100010010
000000000100010101
000000000100011000
000000000100011100
000000000100011111
000000000100100010
000000000100100101
000000000100101000
000000000100101011
000000000100101110
000000000100110001
111111111111110001
111111111111110000
111111111111110000
111111111111101111
111111111111101110
111111111111101110
111111111111101101
111111111111101100
111111111111101011
111111111111101011
111111111111101010
111111111111101001
111111111111101000
111111111111101000
111111111111100111
111111111111100110
111111111111100101
111111111111100100
111111111111100100
111111111111100011
111111111111100010
111111111111100001
111111111111100000
111111111111100000
111111111111011111
111111111111011110
111111111111011101
111111111111011100
111111111111011011
111111111111011010
111111111111011010
111111111111011001
111111111111011000
111111111111010111
111111111111010110
111111111111010101
111111111111010100
111111111111010011
111111111111010011
111111111111010010
111111111111010001
111111111111010000
111111111111001111
111111111111001110
111111111111001101
111111111111001100
111111111111001011
111111111111001011
111111111111001010
111111111111001001
111111111111001000
111111111111000111
111111111111000110
111111111111000101
111111111111000101
111111111111000100
111111111111000011
111111111111000010
111111111111000001
111111111111000000
111111111111000000
111111111110111111
111111111110111110
111111111110111101
111111111110111100
111111111110111100
111111111110111011
111111111110111010
111111111110111001
111111111110111001
111111111110111000
111111111110110111
111111111110110111
111111111110110110
111111111110110101
111111111110110101
111111111110110100
111111111110110100
111111111110110011
111111111110110011
111111111110110010
111111111110110001
111111111110110001
111111111110110001
111111111110110000
111111111110110000
111111111110101111
111111111110101111
111111111110101110
111111111110101110
111111111110101110
111111111110101110
111111111110101101
111111111110101101
111111111110101101
111111111110101101
111111111110101101
111111111110101100
111111111110101100
111111111110101100
111111111110101100
111111111110101100
111111111110101100
111111111110101100
111111111110101100
111111111110101100
111111111110101101
111111111110101101
111111111110101101
111111111110101101
111111111110101101
111111111110101110
111111111110101110
111111111110101111
111111111110101111
111111111110101111
111111111110110000
111111111110110000
111111111110110001
111111111110110010
111111111110110010
111111111110110011
111111111110110100
111111111110110100
111111111110110101
111111111110110110
111111111110110111
111111111110111000
111111111110111001
111111111110111010
111111111110111011
111111111110111100
111111111110111101
111111111110111110
111111111110111111
111111111111000001
111111111111000010
111111111111000011
111111111111000101
111111111111000110
111111111111001000
111111111111001001
111111111111001011
111111111111001100
111111111111001110
111111111111010000
111111111111010001
111111111111010011
111111111111010101
111111111111010111
111111111111011001
111111111111011011
111111111111011101
111111111111011111
111111111111100001
111111111111100011
111111111111100101
111111111111100111
111111111111101001
111111111111101100
111111111111101110
111111111111110000
111111111111110011
111111111111110101
111111111111111000
111111111111111010
111111111111111101
000000000000000000
000000000000000010
000000000000000101
000000000000001000
000000000000001011
000000000000001101
000000000000010000
000000000000010011
000000000000010110
000000000000011001
000000000000011100
000000000000011111
000000000000100010
000000000000100101
000000000000101000
000000000000101100
000000000000101111
000000000000110010
000000000000110101
000000000000111001
000000000000111100
000000000001000000
000000000001000011
000000000001000110
000000000001001010
000000000001001101
000000000001010001
000000000001010100
000000000001011000
000000000001011100
000000000001011111
000000000001100011
000000000001100111
000000000001101010
000000000001101110
000000000001110010
000000000001110101
000000000001111001
000000000001111101
000000000010000001
000000000010000101
000000000010001000
000000000010001100
000000000010010000
000000000010010100
000000000010011000
000000000010011011
000000000010011111
000000000010100011
000000000010100111
000000000010101011
000000000010101111
000000000010110011
000000000010110110
000000000010111010
000000000010111110
000000000011000010
000000000011000110
000000000011001010
000000000011001110
000000000011010001
000000000011010101
000000000011011001
000000000011011101
000000000011100000
000000000011100100
000000000011101000
000000000011101011
000000000011101111
000000000011110011
000000000011110110
000000000011111010
000000000011111101
000000000100000001
000000000100000100
000000000100001000
000000000100001011
000000000100001111
000000000100010010
000000000100010101
000000000100011000
000000000100011100
000000000100011111
000000000100100010
000000000100100101
000000000100101000
000000000100101011
000000000100101110
000000000100110001;
