FFCB8
FFCC2
FFCCB
FFCD5
FFCE0
FFCEA
FFCF5
FFD01
FFD0C
FFD18
FFD24
FFD31
FFD3E
FFD4B
FFD58
FFD66
FFD74
FFD83
FFD91
FFDA0
FFDB0
FFDBF
FFDCF
FFDDF
FFDF0
FFE01
FFE12
FFE23
FFE35
FFE47
FFE59
FFE6B
FFE7E
FFE91
FFEA4
FFEB8
FFECB
FFEDF
FFEF4
FFF08
FFF1D
FFF32
FFF47
FFF5D
FFF72
FFF88
FFF9E
FFFB5
FFFCB
FFFE2
FFFF9
00010
00027
0003F
00056
0006E
00086
0009E
000B7
000CF
000E8
00101
0011A
00133
0014C
00165
0017E
00198
001B1
001CB
001E5
001FF
00218
00232
0024C
00266
00281
0029B
002B5
002CF
002E9
00303
0031D
00338
00352
0036C
00386
003A0
003BA
003D4
003EE
00407
00421
0043B
00454
0046E
00487
004A0
004B9
004D2
004EB
00504
0051C
00534
0054C
00564
0057C
00594
005AB
005C2
005D9
005EF
00606
0061C
00632
00647
0065D
00672
00687
0069B
006AF
006C3
006D6
006EA
006FC
0070F
00721
00733
00744
00755
00766
00776
00785
00795
007A4
007B2
007C0
007CE
007DB
007E8
007F4
00800
0080B
00816
00821
0082A
00834
0083D
00845
0084D
00854
0085B
00861
00867
0086C
00870
00874
00878
0087A
0087D
0087E
0087F
00880
00880
0087F
0087E
0087C
00879
00876
00872
0086E
00869
00863
0085D
00856
0084E
00846
0083D
00834
00829
0081E
00813
00807
007FA
007EC
007DE
007D0
007C0
007B0
0079F
0078E
0077C
00769
00755
00741
0072D
00717
00701
006EA
006D3
006BB
006A2
00689
0066F
00654
00639
0061D
00600
005E3
005C5
005A7
00588
00568
00548
00527
00505
004E3
004C1
0049D
0047A
00455
00430
0040B
003E4
003BE
00397
0036F
00346
0031E
002F4
002CB
002A0
00275
0024A
0021E
001F2
001C5
00198
0016B
0013D
0010E
000E0
000B0
00081
00051
00021
FFFF0
FFFBF
FFF8E
FFF5C
FFF2A
FFEF8
FFEC5
FFE92
FFE5F
FFE2C
